2018-05-09 04:23:11,894 ERROR: Exception on /auth/login [GET] [in /home/drop/sysHome/venv/lib/python3.5/site-packages/flask/app.py:1560]
Traceback (most recent call last):
  File "/home/drop/sysHome/venv/lib/python3.5/site-packages/flask/app.py", line 1982, in wsgi_app
    response = self.full_dispatch_request()
  File "/home/drop/sysHome/venv/lib/python3.5/site-packages/flask/app.py", line 1614, in full_dispatch_request
    rv = self.handle_user_exception(e)
  File "/home/drop/sysHome/venv/lib/python3.5/site-packages/flask/app.py", line 1517, in handle_user_exception
    reraise(exc_type, exc_value, tb)
  File "/home/drop/sysHome/venv/lib/python3.5/site-packages/flask/_compat.py", line 33, in reraise
    raise value
  File "/home/drop/sysHome/venv/lib/python3.5/site-packages/flask/app.py", line 1612, in full_dispatch_request
    rv = self.dispatch_request()
  File "/home/drop/sysHome/venv/lib/python3.5/site-packages/flask/app.py", line 1598, in dispatch_request
    return self.view_functions[rule.endpoint](**req.view_args)
  File "/home/drop/sysHome/app/auth/routes.py", line 28, in login
    return render_template('auth/login.html', title=_('Sign In'), form=form)
  File "/home/drop/sysHome/venv/lib/python3.5/site-packages/flask/templating.py", line 133, in render_template
    return _render(ctx.app.jinja_env.get_or_select_template(template_name_or_list),
  File "/home/drop/sysHome/venv/lib/python3.5/site-packages/jinja2/environment.py", line 869, in get_or_select_template
    return self.get_template(template_name_or_list, parent, globals)
  File "/home/drop/sysHome/venv/lib/python3.5/site-packages/jinja2/environment.py", line 830, in get_template
    return self._load_template(name, self.make_globals(globals))
  File "/home/drop/sysHome/venv/lib/python3.5/site-packages/jinja2/environment.py", line 804, in _load_template
    template = self.loader.load(self, name, globals)
  File "/home/drop/sysHome/venv/lib/python3.5/site-packages/jinja2/loaders.py", line 113, in load
    source, filename, uptodate = self.get_source(environment, name)
  File "/home/drop/sysHome/venv/lib/python3.5/site-packages/flask/templating.py", line 57, in get_source
    return self._get_source_fast(environment, template)
  File "/home/drop/sysHome/venv/lib/python3.5/site-packages/flask/templating.py", line 85, in _get_source_fast
    raise TemplateNotFound(template)
jinja2.exceptions.TemplateNotFound: auth/login.html
2018-05-09 04:24:34,782 INFO: Microblog startup [in /home/drop/sysHome/app/__init__.py:89]
2018-05-09 04:24:34,802 INFO: Microblog startup [in /home/drop/sysHome/app/__init__.py:89]
2018-05-09 04:24:34,819 INFO: Microblog startup [in /home/drop/sysHome/app/__init__.py:89]
2018-05-09 04:24:34,933 INFO: Microblog startup [in /home/drop/sysHome/app/__init__.py:89]
2018-05-09 04:25:44,285 INFO: Microblog startup [in /home/drop/sysHome/app/__init__.py:89]
2018-05-09 04:26:25,993 INFO: Microblog startup [in /home/drop/sysHome/app/__init__.py:89]
2018-05-09 04:26:38,047 INFO: Microblog startup [in /home/drop/sysHome/app/__init__.py:89]
2018-05-09 04:27:21,662 INFO: Microblog startup [in /home/drop/sysHome/app/__init__.py:89]
2018-05-09 04:27:32,357 INFO: Microblog startup [in /home/drop/sysHome/app/__init__.py:89]
2018-05-09 04:27:42,170 INFO: Microblog startup [in /home/drop/sysHome/app/__init__.py:89]
2018-05-09 04:31:27,848 INFO: Microblog startup [in /home/drop/sysHome/app/__init__.py:89]
2018-05-09 04:31:27,969 INFO: Microblog startup [in /home/drop/sysHome/app/__init__.py:89]
2018-05-09 04:31:28,028 INFO: Microblog startup [in /home/drop/sysHome/app/__init__.py:89]
2018-05-09 04:31:28,033 INFO: Microblog startup [in /home/drop/sysHome/app/__init__.py:89]
2018-05-09 04:35:02,397 INFO: Microblog startup [in /home/drop/sysHome/app/__init__.py:89]
2018-05-09 04:35:02,564 INFO: Microblog startup [in /home/drop/sysHome/app/__init__.py:89]
2018-05-09 04:35:02,754 INFO: Microblog startup [in /home/drop/sysHome/app/__init__.py:89]
2018-05-09 04:35:02,910 INFO: Microblog startup [in /home/drop/sysHome/app/__init__.py:89]
2018-05-09 04:47:46,446 INFO: Microblog startup [in /home/drop/sysHome/app/__init__.py:89]
2018-05-09 04:47:46,526 INFO: Microblog startup [in /home/drop/sysHome/app/__init__.py:89]
2018-05-09 04:47:46,566 INFO: Microblog startup [in /home/drop/sysHome/app/__init__.py:89]
2018-05-09 04:47:46,688 INFO: Microblog startup [in /home/drop/sysHome/app/__init__.py:89]
2018-05-09 04:48:14,608 ERROR: Exception on /configuration [GET] [in /home/drop/sysHome/venv/lib/python3.5/site-packages/flask/app.py:1560]
Traceback (most recent call last):
  File "/home/drop/sysHome/venv/lib/python3.5/site-packages/flask/app.py", line 1982, in wsgi_app
    response = self.full_dispatch_request()
  File "/home/drop/sysHome/venv/lib/python3.5/site-packages/flask/app.py", line 1614, in full_dispatch_request
    rv = self.handle_user_exception(e)
  File "/home/drop/sysHome/venv/lib/python3.5/site-packages/flask/app.py", line 1517, in handle_user_exception
    reraise(exc_type, exc_value, tb)
  File "/home/drop/sysHome/venv/lib/python3.5/site-packages/flask/_compat.py", line 33, in reraise
    raise value
  File "/home/drop/sysHome/venv/lib/python3.5/site-packages/flask/app.py", line 1612, in full_dispatch_request
    rv = self.dispatch_request()
  File "/home/drop/sysHome/venv/lib/python3.5/site-packages/flask/app.py", line 1598, in dispatch_request
    return self.view_functions[rule.endpoint](**req.view_args)
  File "/home/drop/sysHome/venv/lib/python3.5/site-packages/flask_login/utils.py", line 228, in decorated_view
    return func(*args, **kwargs)
  File "/home/drop/sysHome/app/main/routes.py", line 246, in configuration
    configuration=True)
  File "/home/drop/sysHome/venv/lib/python3.5/site-packages/flask/templating.py", line 133, in render_template
    return _render(ctx.app.jinja_env.get_or_select_template(template_name_or_list),
  File "/home/drop/sysHome/venv/lib/python3.5/site-packages/jinja2/environment.py", line 869, in get_or_select_template
    return self.get_template(template_name_or_list, parent, globals)
  File "/home/drop/sysHome/venv/lib/python3.5/site-packages/jinja2/environment.py", line 830, in get_template
    return self._load_template(name, self.make_globals(globals))
  File "/home/drop/sysHome/venv/lib/python3.5/site-packages/jinja2/environment.py", line 804, in _load_template
    template = self.loader.load(self, name, globals)
  File "/home/drop/sysHome/venv/lib/python3.5/site-packages/jinja2/loaders.py", line 113, in load
    source, filename, uptodate = self.get_source(environment, name)
  File "/home/drop/sysHome/venv/lib/python3.5/site-packages/flask/templating.py", line 57, in get_source
    return self._get_source_fast(environment, template)
  File "/home/drop/sysHome/venv/lib/python3.5/site-packages/flask/templating.py", line 85, in _get_source_fast
    raise TemplateNotFound(template)
jinja2.exceptions.TemplateNotFound: configure/configuration.html
2018-05-09 04:48:46,175 ERROR: Exception on /configuration [GET] [in /home/drop/sysHome/venv/lib/python3.5/site-packages/flask/app.py:1560]
Traceback (most recent call last):
  File "/home/drop/sysHome/venv/lib/python3.5/site-packages/flask/app.py", line 1982, in wsgi_app
    response = self.full_dispatch_request()
  File "/home/drop/sysHome/venv/lib/python3.5/site-packages/flask/app.py", line 1614, in full_dispatch_request
    rv = self.handle_user_exception(e)
  File "/home/drop/sysHome/venv/lib/python3.5/site-packages/flask/app.py", line 1517, in handle_user_exception
    reraise(exc_type, exc_value, tb)
  File "/home/drop/sysHome/venv/lib/python3.5/site-packages/flask/_compat.py", line 33, in reraise
    raise value
  File "/home/drop/sysHome/venv/lib/python3.5/site-packages/flask/app.py", line 1612, in full_dispatch_request
    rv = self.dispatch_request()
  File "/home/drop/sysHome/venv/lib/python3.5/site-packages/flask/app.py", line 1598, in dispatch_request
    return self.view_functions[rule.endpoint](**req.view_args)
  File "/home/drop/sysHome/venv/lib/python3.5/site-packages/flask_login/utils.py", line 228, in decorated_view
    return func(*args, **kwargs)
  File "/home/drop/sysHome/app/main/routes.py", line 246, in configuration
    configuration=True)
  File "/home/drop/sysHome/venv/lib/python3.5/site-packages/flask/templating.py", line 133, in render_template
    return _render(ctx.app.jinja_env.get_or_select_template(template_name_or_list),
  File "/home/drop/sysHome/venv/lib/python3.5/site-packages/jinja2/environment.py", line 869, in get_or_select_template
    return self.get_template(template_name_or_list, parent, globals)
  File "/home/drop/sysHome/venv/lib/python3.5/site-packages/jinja2/environment.py", line 830, in get_template
    return self._load_template(name, self.make_globals(globals))
  File "/home/drop/sysHome/venv/lib/python3.5/site-packages/jinja2/environment.py", line 804, in _load_template
    template = self.loader.load(self, name, globals)
  File "/home/drop/sysHome/venv/lib/python3.5/site-packages/jinja2/loaders.py", line 113, in load
    source, filename, uptodate = self.get_source(environment, name)
  File "/home/drop/sysHome/venv/lib/python3.5/site-packages/flask/templating.py", line 57, in get_source
    return self._get_source_fast(environment, template)
  File "/home/drop/sysHome/venv/lib/python3.5/site-packages/flask/templating.py", line 85, in _get_source_fast
    raise TemplateNotFound(template)
jinja2.exceptions.TemplateNotFound: configure/configuration.html
2018-05-09 04:48:58,978 INFO: Microblog startup [in /home/drop/sysHome/app/__init__.py:89]
2018-05-09 04:48:59,041 INFO: Microblog startup [in /home/drop/sysHome/app/__init__.py:89]
2018-05-09 04:48:59,055 INFO: Microblog startup [in /home/drop/sysHome/app/__init__.py:89]
2018-05-09 04:48:59,091 INFO: Microblog startup [in /home/drop/sysHome/app/__init__.py:89]
