2018-05-09 09:20:16,965 INFO: Microblog startup [in /home/drop/sysHome/app/__init__.py:89]
2018-05-09 09:20:17,159 INFO: Microblog startup [in /home/drop/sysHome/app/__init__.py:89]
2018-05-09 09:20:36,158 ERROR: Exception on /configuration/sensors [GET] [in /home/drop/sysHome/venv/lib/python3.5/site-packages/flask/app.py:1560]
Traceback (most recent call last):
  File "/home/drop/sysHome/venv/lib/python3.5/site-packages/flask/app.py", line 1982, in wsgi_app
    response = self.full_dispatch_request()
  File "/home/drop/sysHome/venv/lib/python3.5/site-packages/flask/app.py", line 1614, in full_dispatch_request
    rv = self.handle_user_exception(e)
  File "/home/drop/sysHome/venv/lib/python3.5/site-packages/flask/app.py", line 1517, in handle_user_exception
    reraise(exc_type, exc_value, tb)
  File "/home/drop/sysHome/venv/lib/python3.5/site-packages/flask/_compat.py", line 33, in reraise
    raise value
  File "/home/drop/sysHome/venv/lib/python3.5/site-packages/flask/app.py", line 1612, in full_dispatch_request
    rv = self.dispatch_request()
  File "/home/drop/sysHome/venv/lib/python3.5/site-packages/flask/app.py", line 1598, in dispatch_request
    return self.view_functions[rule.endpoint](**req.view_args)
  File "/home/drop/sysHome/venv/lib/python3.5/site-packages/flask_login/utils.py", line 228, in decorated_view
    return func(*args, **kwargs)
  File "/home/drop/sysHome/app/main/routes.py", line 288, in configure_sensors
    sensors_list = table.__html__()
UnboundLocalError: local variable 'table' referenced before assignment
2018-05-09 09:26:45,960 INFO: Microblog startup [in /home/drop/sysHome/app/__init__.py:89]
2018-05-09 09:26:46,139 INFO: Microblog startup [in /home/drop/sysHome/app/__init__.py:89]
2018-05-09 09:26:46,333 INFO: Microblog startup [in /home/drop/sysHome/app/__init__.py:89]
2018-05-09 09:26:46,532 INFO: Microblog startup [in /home/drop/sysHome/app/__init__.py:89]
2018-05-09 09:26:59,075 ERROR: Exception on /configuration/sensors [GET] [in /home/drop/sysHome/venv/lib/python3.5/site-packages/flask/app.py:1560]
Traceback (most recent call last):
  File "/home/drop/sysHome/venv/lib/python3.5/site-packages/flask/app.py", line 1982, in wsgi_app
    response = self.full_dispatch_request()
  File "/home/drop/sysHome/venv/lib/python3.5/site-packages/flask/app.py", line 1614, in full_dispatch_request
    rv = self.handle_user_exception(e)
  File "/home/drop/sysHome/venv/lib/python3.5/site-packages/flask/app.py", line 1517, in handle_user_exception
    reraise(exc_type, exc_value, tb)
  File "/home/drop/sysHome/venv/lib/python3.5/site-packages/flask/_compat.py", line 33, in reraise
    raise value
  File "/home/drop/sysHome/venv/lib/python3.5/site-packages/flask/app.py", line 1612, in full_dispatch_request
    rv = self.dispatch_request()
  File "/home/drop/sysHome/venv/lib/python3.5/site-packages/flask/app.py", line 1598, in dispatch_request
    return self.view_functions[rule.endpoint](**req.view_args)
  File "/home/drop/sysHome/venv/lib/python3.5/site-packages/flask_login/utils.py", line 228, in decorated_view
    return func(*args, **kwargs)
  File "/home/drop/sysHome/app/main/routes.py", line 291, in configure_sensors
    sensors_list = table.__html__()
UnboundLocalError: local variable 'table' referenced before assignment
2018-05-09 09:28:10,870 INFO: Microblog startup [in /home/drop/sysHome/app/__init__.py:89]
2018-05-09 09:28:10,903 INFO: Microblog startup [in /home/drop/sysHome/app/__init__.py:89]
2018-05-09 09:28:11,195 INFO: Microblog startup [in /home/drop/sysHome/app/__init__.py:89]
2018-05-09 09:28:11,258 ERROR: Exception on /configuration/sensors [GET] [in /home/drop/sysHome/venv/lib/python3.5/site-packages/flask/app.py:1560]
Traceback (most recent call last):
  File "/home/drop/sysHome/venv/lib/python3.5/site-packages/flask/app.py", line 1982, in wsgi_app
    response = self.full_dispatch_request()
  File "/home/drop/sysHome/venv/lib/python3.5/site-packages/flask/app.py", line 1614, in full_dispatch_request
    rv = self.handle_user_exception(e)
  File "/home/drop/sysHome/venv/lib/python3.5/site-packages/flask/app.py", line 1517, in handle_user_exception
    reraise(exc_type, exc_value, tb)
  File "/home/drop/sysHome/venv/lib/python3.5/site-packages/flask/_compat.py", line 33, in reraise
    raise value
  File "/home/drop/sysHome/venv/lib/python3.5/site-packages/flask/app.py", line 1612, in full_dispatch_request
    rv = self.dispatch_request()
  File "/home/drop/sysHome/venv/lib/python3.5/site-packages/flask/app.py", line 1598, in dispatch_request
    return self.view_functions[rule.endpoint](**req.view_args)
  File "/home/drop/sysHome/venv/lib/python3.5/site-packages/flask_login/utils.py", line 228, in decorated_view
    return func(*args, **kwargs)
  File "/home/drop/sysHome/app/main/routes.py", line 293, in configure_sensors
    sensors_list = table.__html__()
UnboundLocalError: local variable 'table' referenced before assignment
2018-05-09 09:28:11,346 INFO: Microblog startup [in /home/drop/sysHome/app/__init__.py:89]
2018-05-09 09:32:57,749 INFO: Microblog startup [in /home/drop/sysHome/app/__init__.py:89]
2018-05-09 09:32:57,757 INFO: Microblog startup [in /home/drop/sysHome/app/__init__.py:89]
2018-05-09 09:32:57,830 INFO: Microblog startup [in /home/drop/sysHome/app/__init__.py:89]
2018-05-09 09:32:57,850 INFO: Microblog startup [in /home/drop/sysHome/app/__init__.py:89]
2018-05-09 09:38:55,426 INFO: Microblog startup [in /home/drop/sysHome/app/__init__.py:89]
2018-05-09 09:38:55,763 INFO: Microblog startup [in /home/drop/sysHome/app/__init__.py:89]
2018-05-09 09:38:55,851 INFO: Microblog startup [in /home/drop/sysHome/app/__init__.py:89]
2018-05-09 09:38:55,917 INFO: Microblog startup [in /home/drop/sysHome/app/__init__.py:89]
2018-05-09 09:39:29,565 INFO: Microblog startup [in /home/drop/sysHome/app/__init__.py:89]
2018-05-09 09:39:29,611 INFO: Microblog startup [in /home/drop/sysHome/app/__init__.py:89]
2018-05-09 09:39:29,743 INFO: Microblog startup [in /home/drop/sysHome/app/__init__.py:89]
2018-05-09 09:39:29,842 INFO: Microblog startup [in /home/drop/sysHome/app/__init__.py:89]
2018-05-09 09:40:09,549 INFO: Microblog startup [in /home/drop/sysHome/app/__init__.py:89]
2018-05-09 09:40:10,120 INFO: Microblog startup [in /home/drop/sysHome/app/__init__.py:89]
2018-05-09 09:40:11,217 INFO: Microblog startup [in /home/drop/sysHome/app/__init__.py:89]
2018-05-09 09:40:11,431 INFO: Microblog startup [in /home/drop/sysHome/app/__init__.py:89]
2018-05-09 14:41:38,429 INFO: Microblog startup [in /home/drop/sysHome/app/__init__.py:89]
2018-05-09 14:41:38,583 INFO: Microblog startup [in /home/drop/sysHome/app/__init__.py:89]
2018-05-09 14:41:38,683 INFO: Microblog startup [in /home/drop/sysHome/app/__init__.py:89]
2018-05-09 14:41:38,812 INFO: Microblog startup [in /home/drop/sysHome/app/__init__.py:89]
2018-05-10 01:04:10,204 INFO: Microblog startup [in /home/drop/sysHome/app/__init__.py:89]
2018-05-10 01:04:10,209 INFO: Microblog startup [in /home/drop/sysHome/app/__init__.py:89]
2018-05-10 01:04:10,390 INFO: Microblog startup [in /home/drop/sysHome/app/__init__.py:89]
2018-05-10 01:04:10,390 INFO: Microblog startup [in /home/drop/sysHome/app/__init__.py:89]
2018-05-11 04:59:40,457 ERROR: Exception on /configuration [GET] [in /home/drop/sysHome/venv/lib/python3.5/site-packages/flask/app.py:1560]
Traceback (most recent call last):
  File "/home/drop/sysHome/venv/lib/python3.5/site-packages/flask/app.py", line 1982, in wsgi_app
    response = self.full_dispatch_request()
  File "/home/drop/sysHome/venv/lib/python3.5/site-packages/flask/app.py", line 1614, in full_dispatch_request
    rv = self.handle_user_exception(e)
  File "/home/drop/sysHome/venv/lib/python3.5/site-packages/flask/app.py", line 1517, in handle_user_exception
    reraise(exc_type, exc_value, tb)
  File "/home/drop/sysHome/venv/lib/python3.5/site-packages/flask/_compat.py", line 33, in reraise
    raise value
  File "/home/drop/sysHome/venv/lib/python3.5/site-packages/flask/app.py", line 1612, in full_dispatch_request
    rv = self.dispatch_request()
  File "/home/drop/sysHome/venv/lib/python3.5/site-packages/flask/app.py", line 1598, in dispatch_request
    return self.view_functions[rule.endpoint](**req.view_args)
  File "/home/drop/sysHome/venv/lib/python3.5/site-packages/flask_login/utils.py", line 228, in decorated_view
    return func(*args, **kwargs)
  File "/home/drop/sysHome/app/main/routes.py", line 239, in configuration
    print("++")
OSError: [Errno 5] Input/output error
2018-05-11 04:59:44,357 ERROR: Exception on /configuration [GET] [in /home/drop/sysHome/venv/lib/python3.5/site-packages/flask/app.py:1560]
Traceback (most recent call last):
  File "/home/drop/sysHome/venv/lib/python3.5/site-packages/flask/app.py", line 1982, in wsgi_app
    response = self.full_dispatch_request()
  File "/home/drop/sysHome/venv/lib/python3.5/site-packages/flask/app.py", line 1614, in full_dispatch_request
    rv = self.handle_user_exception(e)
  File "/home/drop/sysHome/venv/lib/python3.5/site-packages/flask/app.py", line 1517, in handle_user_exception
    reraise(exc_type, exc_value, tb)
  File "/home/drop/sysHome/venv/lib/python3.5/site-packages/flask/_compat.py", line 33, in reraise
    raise value
  File "/home/drop/sysHome/venv/lib/python3.5/site-packages/flask/app.py", line 1612, in full_dispatch_request
    rv = self.dispatch_request()
  File "/home/drop/sysHome/venv/lib/python3.5/site-packages/flask/app.py", line 1598, in dispatch_request
    return self.view_functions[rule.endpoint](**req.view_args)
  File "/home/drop/sysHome/venv/lib/python3.5/site-packages/flask_login/utils.py", line 228, in decorated_view
    return func(*args, **kwargs)
  File "/home/drop/sysHome/app/main/routes.py", line 239, in configuration
    print("++")
OSError: [Errno 5] Input/output error
2018-05-11 05:00:14,643 INFO: Microblog startup [in /home/drop/sysHome/app/__init__.py:89]
2018-05-11 05:00:14,645 INFO: Microblog startup [in /home/drop/sysHome/app/__init__.py:89]
2018-05-11 05:00:14,664 INFO: Microblog startup [in /home/drop/sysHome/app/__init__.py:89]
2018-05-11 05:00:14,712 INFO: Microblog startup [in /home/drop/sysHome/app/__init__.py:89]
