2018-05-11 05:07:58,084 INFO: Microblog startup [in /home/drop/sysHome/app/__init__.py:89]
2018-05-11 05:07:58,502 INFO: Microblog startup [in /home/drop/sysHome/app/__init__.py:89]
2018-05-11 05:07:58,511 INFO: Microblog startup [in /home/drop/sysHome/app/__init__.py:89]
2018-05-11 05:08:52,212 INFO: Microblog startup [in /home/drop/sysHome/app/__init__.py:89]
2018-05-11 05:08:52,250 INFO: Microblog startup [in /home/drop/sysHome/app/__init__.py:89]
2018-05-11 05:08:52,485 INFO: Microblog startup [in /home/drop/sysHome/app/__init__.py:89]
2018-05-11 05:08:52,664 INFO: Microblog startup [in /home/drop/sysHome/app/__init__.py:89]
2018-05-11 05:09:36,829 INFO: Microblog startup [in /home/drop/sysHome/app/__init__.py:89]
2018-05-11 05:09:36,921 INFO: Microblog startup [in /home/drop/sysHome/app/__init__.py:89]
2018-05-11 05:09:36,953 INFO: Microblog startup [in /home/drop/sysHome/app/__init__.py:89]
2018-05-11 05:09:37,102 INFO: Microblog startup [in /home/drop/sysHome/app/__init__.py:89]
2018-05-11 05:11:16,990 INFO: Microblog startup [in /home/drop/sysHome/app/__init__.py:89]
2018-05-11 05:11:17,125 INFO: Microblog startup [in /home/drop/sysHome/app/__init__.py:89]
2018-05-11 05:11:17,192 INFO: Microblog startup [in /home/drop/sysHome/app/__init__.py:89]
2018-05-11 05:11:17,527 INFO: Microblog startup [in /home/drop/sysHome/app/__init__.py:89]
2018-05-11 05:11:54,014 INFO: Microblog startup [in /home/drop/sysHome/app/__init__.py:89]
2018-05-11 05:11:54,092 INFO: Microblog startup [in /home/drop/sysHome/app/__init__.py:89]
2018-05-11 05:11:54,283 INFO: Microblog startup [in /home/drop/sysHome/app/__init__.py:89]
2018-05-11 05:11:54,497 INFO: Microblog startup [in /home/drop/sysHome/app/__init__.py:89]
2018-05-11 05:12:41,017 INFO: Microblog startup [in /home/drop/sysHome/app/__init__.py:89]
2018-05-11 05:12:41,075 INFO: Microblog startup [in /home/drop/sysHome/app/__init__.py:89]
2018-05-11 05:12:41,102 INFO: Microblog startup [in /home/drop/sysHome/app/__init__.py:89]
2018-05-11 05:12:42,743 INFO: Microblog startup [in /home/drop/sysHome/app/__init__.py:89]
2018-05-11 05:13:23,920 INFO: Microblog startup [in /home/drop/sysHome/app/__init__.py:89]
2018-05-11 05:13:23,939 INFO: Microblog startup [in /home/drop/sysHome/app/__init__.py:89]
2018-05-11 05:13:24,637 INFO: Microblog startup [in /home/drop/sysHome/app/__init__.py:89]
2018-05-11 05:13:26,272 INFO: Microblog startup [in /home/drop/sysHome/app/__init__.py:89]
2018-05-11 05:14:00,461 INFO: Microblog startup [in /home/drop/sysHome/app/__init__.py:89]
2018-05-11 05:14:01,095 INFO: Microblog startup [in /home/drop/sysHome/app/__init__.py:89]
2018-05-11 05:14:02,756 INFO: Microblog startup [in /home/drop/sysHome/app/__init__.py:89]
2018-05-11 05:14:02,773 INFO: Microblog startup [in /home/drop/sysHome/app/__init__.py:89]
2018-05-11 05:15:59,312 ERROR: Exception on /configuration/add_sensor [GET] [in /home/drop/sysHome/venv/lib/python3.5/site-packages/flask/app.py:1560]
Traceback (most recent call last):
  File "/home/drop/sysHome/venv/lib/python3.5/site-packages/flask/app.py", line 1982, in wsgi_app
    response = self.full_dispatch_request()
  File "/home/drop/sysHome/venv/lib/python3.5/site-packages/flask/app.py", line 1614, in full_dispatch_request
    rv = self.handle_user_exception(e)
  File "/home/drop/sysHome/venv/lib/python3.5/site-packages/flask/app.py", line 1517, in handle_user_exception
    reraise(exc_type, exc_value, tb)
  File "/home/drop/sysHome/venv/lib/python3.5/site-packages/flask/_compat.py", line 33, in reraise
    raise value
  File "/home/drop/sysHome/venv/lib/python3.5/site-packages/flask/app.py", line 1612, in full_dispatch_request
    rv = self.dispatch_request()
  File "/home/drop/sysHome/venv/lib/python3.5/site-packages/flask/app.py", line 1598, in dispatch_request
    return self.view_functions[rule.endpoint](**req.view_args)
  File "/home/drop/sysHome/venv/lib/python3.5/site-packages/flask_login/utils.py", line 228, in decorated_view
    return func(*args, **kwargs)
  File "/home/drop/sysHome/app/main/routes.py", line 375, in add_sensor
    form=form)
  File "/home/drop/sysHome/venv/lib/python3.5/site-packages/flask/templating.py", line 134, in render_template
    context, ctx.app)
  File "/home/drop/sysHome/venv/lib/python3.5/site-packages/flask/templating.py", line 116, in _render
    rv = template.render(context)
  File "/home/drop/sysHome/venv/lib/python3.5/site-packages/jinja2/environment.py", line 1008, in render
    return self.environment.handle_exception(exc_info, True)
  File "/home/drop/sysHome/venv/lib/python3.5/site-packages/jinja2/environment.py", line 780, in handle_exception
    reraise(exc_type, exc_value, tb)
  File "/home/drop/sysHome/venv/lib/python3.5/site-packages/jinja2/_compat.py", line 37, in reraise
    raise value.with_traceback(tb)
  File "/home/drop/sysHome/app/templates/configure/addsensor.html", line 1, in top-level template code
    {% extends "/configure/conf_base.html" %}
  File "/home/drop/sysHome/app/templates/configure/conf_base.html", line 163, in top-level template code
    {% block content %}{% endblock %}
  File "/home/drop/sysHome/app/templates/configure/addsensor.html", line 26, in block "content"
    {{ wtf.quick_form(form) }}
  File "/home/drop/sysHome/venv/lib/python3.5/site-packages/jinja2/environment.py", line 430, in getattr
    return getattr(obj, attribute)
jinja2.exceptions.UndefinedError: 'wtf' is undefined
2018-05-11 05:16:01,494 ERROR: Exception on /configuration/add_sensor [GET] [in /home/drop/sysHome/venv/lib/python3.5/site-packages/flask/app.py:1560]
Traceback (most recent call last):
  File "/home/drop/sysHome/venv/lib/python3.5/site-packages/flask/app.py", line 1982, in wsgi_app
    response = self.full_dispatch_request()
  File "/home/drop/sysHome/venv/lib/python3.5/site-packages/flask/app.py", line 1614, in full_dispatch_request
    rv = self.handle_user_exception(e)
  File "/home/drop/sysHome/venv/lib/python3.5/site-packages/flask/app.py", line 1517, in handle_user_exception
    reraise(exc_type, exc_value, tb)
  File "/home/drop/sysHome/venv/lib/python3.5/site-packages/flask/_compat.py", line 33, in reraise
    raise value
  File "/home/drop/sysHome/venv/lib/python3.5/site-packages/flask/app.py", line 1612, in full_dispatch_request
    rv = self.dispatch_request()
  File "/home/drop/sysHome/venv/lib/python3.5/site-packages/flask/app.py", line 1598, in dispatch_request
    return self.view_functions[rule.endpoint](**req.view_args)
  File "/home/drop/sysHome/venv/lib/python3.5/site-packages/flask_login/utils.py", line 228, in decorated_view
    return func(*args, **kwargs)
  File "/home/drop/sysHome/app/main/routes.py", line 375, in add_sensor
    form=form)
  File "/home/drop/sysHome/venv/lib/python3.5/site-packages/flask/templating.py", line 134, in render_template
    context, ctx.app)
  File "/home/drop/sysHome/venv/lib/python3.5/site-packages/flask/templating.py", line 116, in _render
    rv = template.render(context)
  File "/home/drop/sysHome/venv/lib/python3.5/site-packages/jinja2/environment.py", line 1008, in render
    return self.environment.handle_exception(exc_info, True)
  File "/home/drop/sysHome/venv/lib/python3.5/site-packages/jinja2/environment.py", line 780, in handle_exception
    reraise(exc_type, exc_value, tb)
  File "/home/drop/sysHome/venv/lib/python3.5/site-packages/jinja2/_compat.py", line 37, in reraise
    raise value.with_traceback(tb)
  File "/home/drop/sysHome/app/templates/configure/addsensor.html", line 1, in top-level template code
    {% extends "/configure/conf_base.html" %}
  File "/home/drop/sysHome/app/templates/configure/conf_base.html", line 163, in top-level template code
    {% block content %}{% endblock %}
  File "/home/drop/sysHome/app/templates/configure/addsensor.html", line 26, in block "content"
    {{ wtf.quick_form(form) }}
  File "/home/drop/sysHome/venv/lib/python3.5/site-packages/jinja2/environment.py", line 430, in getattr
    return getattr(obj, attribute)
jinja2.exceptions.UndefinedError: 'wtf' is undefined
2018-05-11 05:16:56,588 INFO: Microblog startup [in /home/drop/sysHome/app/__init__.py:89]
2018-05-11 05:16:57,100 INFO: Microblog startup [in /home/drop/sysHome/app/__init__.py:89]
2018-05-11 05:16:57,210 INFO: Microblog startup [in /home/drop/sysHome/app/__init__.py:89]
2018-05-11 05:16:57,290 INFO: Microblog startup [in /home/drop/sysHome/app/__init__.py:89]
2018-05-11 05:16:57,508 INFO: Microblog startup [in /home/drop/sysHome/app/__init__.py:89]
2018-05-11 05:16:57,737 INFO: Microblog startup [in /home/drop/sysHome/app/__init__.py:89]
2018-05-11 05:16:58,596 INFO: Microblog startup [in /home/drop/sysHome/app/__init__.py:89]
2018-05-25 23:38:25,897 INFO: Microblog startup [in /home/drop/sysHome/app/__init__.py:89]
2018-05-25 23:38:25,898 INFO: Microblog startup [in /home/drop/sysHome/app/__init__.py:89]
2018-05-25 23:38:25,898 INFO: Microblog startup [in /home/drop/sysHome/app/__init__.py:89]
2018-05-25 23:38:25,924 INFO: Microblog startup [in /home/drop/sysHome/app/__init__.py:89]
2018-05-31 22:13:52,297 INFO: Microblog startup [in /home/drop/syshome/app/__init__.py:89]
2018-05-31 22:14:12,359 INFO: Microblog startup [in /home/drop/syshome/app/__init__.py:89]
2018-05-31 22:14:31,955 INFO: Microblog startup [in /home/drop/syshome/app/__init__.py:89]
2018-05-31 22:15:08,193 INFO: Microblog startup [in /home/drop/syshome/app/__init__.py:89]
2018-05-31 22:18:25,708 INFO: Microblog startup [in /home/drop/syshome/app/__init__.py:89]
2018-05-31 22:18:36,293 INFO: Microblog startup [in /home/drop/syshome/app/__init__.py:89]
2018-05-31 22:19:19,079 INFO: Microblog startup [in /home/drop/syshome/app/__init__.py:89]
2018-05-31 22:25:32,200 INFO: Microblog startup [in /home/drop/syshome/app/__init__.py:89]
2018-05-31 22:25:54,485 INFO: Microblog startup [in /home/drop/syshome/app/__init__.py:89]
2018-05-31 22:25:54,611 INFO: Microblog startup [in /home/drop/syshome/app/__init__.py:89]
2018-05-31 22:25:54,624 INFO: Microblog startup [in /home/drop/syshome/app/__init__.py:89]
2018-05-31 22:25:55,389 INFO: Microblog startup [in /home/drop/syshome/app/__init__.py:89]
